Epoch	AverageEpRet	StdEpRet	MaxEpRet	MinEpRet	EpLen	AverageVVals	StdVVals	MaxVVals	MinVVals	TotalEnvInteracts	LossPi	LossV	DeltaLossPi	DeltaLossV	Entropy	KL	ClipFrac	StopIter	Time
0	-231.36447	36.313473	-199.34114	-296.00552	1000.0	0.6420938	0.42261168	2.6145303	-0.44737482	5000	-3.414154e-08	576.89374	-0.05050898	-444.71234	0.9189385	0.015120813	0.1916	45.0	1.7276840209960938
1	-210.2207	46.039074	-155.89117	-289.1374	1000.0	-20.398436	6.253184	-1.8499672	-46.1583	10000	-7.4386595e-09	142.0647	-0.058837395	-15.549858	0.91458285	-0.0025357124	0.2098	79.0	3.799700975418091
2	-295.60266	31.367788	-260.93222	-335.5082	1000.0	-22.548944	6.0402174	-2.0594501	-46.93549	15000	-6.9618227e-09	205.26172	-0.06408217	-58.873962	0.90252537	-0.0039841817	0.2392	79.0	6.0287065505981445
3	-255.18633	50.660984	-174.4208	-325.72806	1000.0	-23.0514	6.1323657	-3.6143785	-48.310883	20000	-2.07901e-08	202.12383	-0.06515584	-20.956055	0.889336	-0.0005603469	0.2522	79.0	7.927859783172607
4	-168.1456	51.879696	-96.76769	-225.04132	1000.0	-24.450628	5.5482078	-5.3835154	-60.009598	25000	-4.9591065e-09	236.2622	-0.06347062	-61.277054	0.87369084	-0.0018062361	0.2486	79.0	9.796110391616821
5	-181.00821	20.80548	-151.66714	-198.92307	1000.0	-17.343145	4.037502	-4.3178353	-37.467896	30000	-1.0299683e-08	97.33976	-0.06347956	-3.9743576	0.858106	0.0037064229	0.2458	79.0	11.64112901687622
6	-121.63265	61.8054	-29.619795	-203.70006	1000.0	-17.380434	3.7803748	-4.348097	-33.0182	35000	2.4032593e-08	153.25035	-0.066250354	-26.268402	0.8494605	0.010178212	0.274	79.0	13.512790203094482
7	-139.85915	60.43613	-76.36497	-245.73773	1000.0	-12.910911	2.7410214	-3.3839684	-25.649948	40000	1.5068053e-08	89.01668	-0.06496934	-2.3342438	0.8372523	0.009679916	0.2788	79.0	15.5261971950531
8	-158.64395	41.218975	-106.75633	-223.8902	1000.0	-15.1305685	5.780409	-3.6741402	-52.93922	45000	6.198883e-10	85.90333	-0.07483844	-19.618813	0.8232181	0.009545045	0.292	79.0	17.695236921310425
9	-139.4461	47.841217	-71.29209	-200.60973	1000.0	-13.74855	3.2019053	-2.9916391	-27.915962	50000	-1.0299683e-08	77.936295	-0.06795186	-3.8799667	0.8173123	0.007749506	0.2798	79.0	19.636335134506226
10	-109.67232	38.280807	-51.472206	-170.1067	1000.0	-14.239035	2.8283772	-2.9268737	-26.45283	55000	4.9591065e-09	84.49939	-0.06786878	-10.406563	0.80941206	0.008544447	0.2948	79.0	21.71272301673889
11	-122.688675	36.27096	-54.03776	-155.50024	1000.0	-11.203079	2.594202	-1.7901628	-22.163965	60000	5.722046e-09	80.00396	-0.038025655	-2.5371704	0.8016973	0.015074393	0.2366	20.0	23.36272621154785
12	-112.03227	30.494755	-67.28234	-142.8294	1000.0	-12.648328	2.5905726	-3.2107332	-32.90638	65000	1.1730194e-08	52.0314	-0.07125829	-1.9025955	0.8001129	0.012382839	0.31	79.0	25.23456835746765
13	-70.59621	24.72223	-26.313938	-95.94172	1000.0	-11.451865	2.3588858	-3.0763214	-22.482561	70000	2.3841858e-08	76.22896	-0.04019958	-18.205826	0.7899884	0.015060047	0.2216	22.0	26.874380350112915
14	-61.585075	17.387758	-38.468292	-88.45173	1000.0	-7.5126452	1.904123	-1.4110402	-16.391027	75000	-1.926422e-08	25.754206	-0.026913794	-1.2151585	0.7862112	0.016165847	0.18	13.0	28.48533272743225
15	-83.24855	17.878574	-61.466415	-101.929665	1000.0	-6.6408625	1.6539024	-1.3806858	-18.874458	80000	-9.155274e-09	63.866676	-0.019192241	-3.4681778	0.7832469	0.01521031	0.1722	9.0	30.075944423675537
16	-53.45995	31.409405	-0.79494864	-89.15957	1000.0	-8.15765	2.5695436	-1.1113085	-37.864697	85000	3.2424927e-09	49.629208	-0.038293436	-6.134083	0.7820882	0.015009789	0.1954	19.0	31.839580535888672
17	-44.28013	27.613817	4.3389935	-81.1332	1000.0	-5.8524323	1.8692741	1.1827377	-14.497395	90000	-1.3542175e-08	58.367718	-0.021252511	-3.252617	0.779004	0.015390276	0.1872	9.0	33.417078495025635
18	-51.49273	41.06788	-13.740494	-117.383446	1000.0	-4.472901	2.3087506	4.151021	-18.315407	95000	-8.010864e-09	69.66178	-0.014684754	-2.987831	0.77664924	0.01573752	0.162	6.0	35.005847692489624
19	-67.64674	42.90794	-20.870195	-138.15562	1000.0	-5.5995054	2.500307	2.4839232	-17.777689	100000	-3.6239625e-09	58.45201	-0.008237864	-2.7034874	0.7749067	0.017302332	0.2016	4.0	36.639246225357056
20	-53.97123	20.671108	-18.267927	-75.16617	1000.0	-6.564349	2.2000432	1.1697983	-18.589947	105000	8.5830687e-10	32.152607	-0.02900849	-2.0574226	0.7738268	0.015011084	0.1944	13.0	38.2751944065094
21	-17.348783	22.596838	11.656135	-47.67908	1000.0	-5.4322476	2.0058622	1.9362012	-17.332188	110000	2.5177002e-08	58.89036	-0.021039108	-10.345139	0.77034116	0.015348958	0.176	10.0	39.89500045776367
22	-31.970806	38.02914	34.8741	-69.87697	1000.0	-2.823291	2.167403	7.7302656	-11.222214	115000	-2.2125244e-08	48.466305	-0.019848678	-2.127491	0.7678539	0.015126941	0.186	9.0	41.50544357299805
23	-16.845541	18.092493	6.531578	-39.153194	1000.0	-3.1302629	2.2334054	6.949168	-12.58509	120000	-4.577637e-09	50.777714	-0.016790764	-2.3853226	0.7658937	0.016323928	0.1886	7.0	43.10602068901062
24	-4.109245	29.150562	20.838314	-60.177162	1000.0	-2.4163187	2.1678064	5.2912817	-12.281118	125000	-1.1444092e-08	31.2767	-0.026422303	-3.0724049	0.7636394	0.0151098585	0.1876	12.0	44.71574115753174
25	3.0069556	16.003744	25.862614	-15.0058775	1000.0	-0.9307746	1.9049147	8.873786	-10.132594	130000	-1.3446808e-08	50.54695	-0.023726497	-3.2615433	0.76092327	0.016216962	0.1906	11.0	46.29182052612305
26	30.65332	23.816935	57.398785	-0.29989427	1000.0	0.22769992	2.0045779	8.015297	-13.6809635	135000	1.4877319e-08	42.866116	-0.013804678	-5.157402	0.758372	0.015402698	0.168	5.0	47.88748264312744
27	10.893385	32.351395	44.02146	-45.890392	1000.0	2.0117178	2.1221874	11.039883	-12.884013	140000	-4.7683715e-09	43.955208	-0.009417474	-3.6918068	0.7573107	0.016886165	0.1748	4.0	49.45362305641174
28	11.499327	31.23879	36.907448	-44.301685	1000.0	0.50665754	1.8384879	5.836192	-10.30623	145000	1.8119811e-08	59.37875	-0.016055223	-2.586586	0.7567039	0.016453763	0.1912	6.0	51.035428047180176
29	10.878306	43.677147	93.09302	-30.686625	1000.0	0.35033375	2.349721	7.828589	-10.517018	150000	6.1035155e-09	44.519608	-0.010990214	-2.4071846	0.75560236	0.016738115	0.1772	5.0	52.699095249176025
30	26.377914	11.240853	36.73852	10.23878	1000.0	0.8114803	2.226985	9.01103	-13.373596	155000	-2.0980835e-09	39.73558	-0.008547241	-5.470936	0.75495833	0.016501691	0.1772	4.0	54.297056436538696
31	9.673628	50.870186	111.05499	-22.427565	1000.0	2.4934328	2.1844115	9.747532	-17.863056	160000	-1.1634826e-08	82.95746	-0.01856511	-7.165634	0.7544994	0.01575456	0.1838	8.0	55.884785652160645
32	47.70998	43.780354	75.81023	-39.5124	1000.0	1.2348461	2.8537424	16.831106	-16.302439	165000	-1.1205673e-08	56.567677	-0.06990684	-8.219997	0.75350624	0.012998758	0.2916	79.0	57.82877516746521
33	64.34012	42.663063	143.94977	18.17171	1000.0	3.6727378	2.6537862	14.282569	-14.425702	170000	-1.4591217e-08	64.464035	-0.06891619	-9.335335	0.7431875	0.015204136	0.3048	77.0	59.67849802970886
34	5.8842287	88.84113	87.46329	-163.1194	1000.0	4.753291	4.718345	29.783524	-22.147558	175000	-1.0299683e-08	256.29327	-0.02549952	-151.79724	0.73771405	0.015479115	0.1376	9.0	61.253334522247314
35	102.73368	14.527422	118.85402	82.90201	1000.0	4.78736	4.290011	19.291431	-18.723381	180000	-2.3937226e-08	89.56352	-0.017136684	-31.01426	0.73755604	0.015279574	0.1796	7.0	62.859044313430786
36	46.98431	113.68169	133.29852	-176.90236	1000.0	6.5275307	9.258079	22.458117	-37.324966	185000	1.27792354e-08	125.97157	-0.022303175	-52.11547	0.7382297	0.015429128	0.1942	9.0	64.5809862613678
37	79.03901	48.373238	155.3061	26.493126	1000.0	8.442005	3.6957304	22.802736	-11.338053	190000	-4.386902e-09	84.50262	-0.028780514	-9.957207	0.7383708	0.015321457	0.172	14.0	66.38791346549988
38	11.027229	78.839935	93.518654	-121.777466	1000.0	3.362519	12.431377	19.189884	-42.17683	195000	-1.3542175e-08	187.98923	-0.0270931	-61.471313	0.73749065	0.015485205	0.1988	10.0	68.3199450969696
39	105.48982	64.49431	174.24088	-7.0702963	1000.0	5.536067	4.0931787	18.581951	-24.65224	200000	1.9073487e-09	129.00862	-0.02479406	-32.420105	0.73678654	0.015050139	0.2184	11.0	70.07569909095764
40	92.0049	53.535725	142.56345	-10.991494	1000.0	9.750448	4.462381	20.498413	-17.146051	205000	-3.0517577e-09	125.68067	-0.050914265	-8.141083	0.73562586	0.015144793	0.2658	33.0	71.9131236076355
41	-12.092865	182.25557	182.94434	-301.2157	1000.0	0.25613594	16.361948	21.987162	-46.50618	210000	-1.0299683e-08	242.4393	-0.030981995	-123.07334	0.729065	0.015189391	0.2068	11.0	73.77649664878845
42	6.7941437	121.10504	156.42033	-196.64822	1000.0	5.4941225	17.91965	27.94249	-57.329544	215000	2.3555756e-08	217.27748	-0.015508713	-54.760986	0.72938776	0.016340919	0.1562	6.0	75.52725291252136
43	31.74447	197.65129	177.84348	-358.44165	1000.0	-2.5930433	23.184185	21.896994	-70.09988	220000	4.196167e-09	124.00346	-0.020925365	-35.93129	0.729874	0.015141547	0.1896	8.0	77.48282051086426
44	111.20506	50.80779	173.9959	30.132854	1000.0	10.807086	11.784672	28.959652	-62.87601	225000	1.6784668e-08	152.5049	-0.01714132	-10.08876	0.7299078	0.015434531	0.1952	7.0	79.35312795639038
45	57.835884	175.16928	173.6272	-289.6393	1000.0	3.834307	21.698135	25.247982	-61.20669	230000	7.820129e-09	74.638954	-0.016480971	-6.7485657	0.7293109	0.015436579	0.1648	6.0	81.10839056968689
46	75.3172	170.13785	183.4348	-263.16125	1000.0	5.7858014	20.45399	24.716555	-58.343147	235000	-1.1444092e-09	81.13145	-0.033683673	-5.8548737	0.7285138	0.015507793	0.2248	15.0	82.99989867210388
47	57.88213	197.73058	218.91765	-325.9359	1000.0	4.573779	22.732483	26.4067	-61.939667	240000	4.386902e-09	104.29386	-0.026788542	-9.45591	0.7270629	0.015239135	0.1754	11.0	84.80109786987305
48	-66.86748	295.0115	167.6353	-566.78174	1000.0	-5.1468806	31.925194	27.202124	-66.64967	245000	1.5830993e-08	155.92845	-0.012150113	-33.352386	0.726399	0.017824743	0.1992	4.0	86.49968266487122
49	153.48074	33.686764	214.15323	113.98266	1000.0	12.969	3.997815	29.634087	-19.37235	250000	-2.0599366e-08	60.8464	-0.009235485	-11.812851	0.72607917	0.016363071	0.2054	4.0	88.26787304878235
50	112.53346	150.20679	214.87457	-185.61142	1000.0	7.2910686	22.313759	33.55103	-61.94448	255000	-4.577637e-09	80.65652	-0.017776202	-11.10601	0.72567666	0.015397681	0.177	7.0	90.19751191139221
51	177.29652	39.796055	242.46246	131.63965	1000.0	16.848186	3.6541586	28.929167	-17.631435	260000	-5.2452087e-10	135.87384	-0.07188657	-11.008865	0.7249468	0.011280796	0.3318	79.0	92.3734655380249
52	-27.250835	342.46906	268.0588	-493.16406	1000.0	-8.526177	35.62242	34.598503	-73.45644	265000	5.340576e-09	157.83685	-0.063722536	-31.681038	0.7181466	0.0150965685	0.299	51.0	94.24637150764465
53	168.1189	60.18564	239.27296	79.316696	1000.0	22.038202	5.105896	38.04734	-16.476898	270000	1.4400483e-08	159.8514	-0.0226237	-41.507584	0.71157736	0.015575428	0.2156	8.0	96.02410674095154
54	71.05111	260.69916	302.3339	-418.89786	1000.0	3.8041105	26.060982	35.932716	-56.683033	275000	6.4849854e-09	183.32837	-0.021833183	-56.01107	0.709769	0.015074498	0.1874	8.0	97.78202033042908
55	197.47807	164.17345	313.61423	-123.551636	1000.0	14.99475	22.613783	38.320316	-61.04593	280000	7.247925e-09	124.22081	-0.011158922	-22.888405	0.7076882	0.017826853	0.1974	4.0	99.52846384048462
56	211.93216	24.016886	241.2185	168.32712	1000.0	25.080294	4.4344807	37.18731	-17.155018	285000	2.1743775e-08	101.64928	-0.011584114	-17.155739	0.7070012	0.016206184	0.1928	4.0	101.3221435546875
57	261.16168	35.764145	311.98776	218.52339	1000.0	22.54711	3.2740228	37.754677	3.0876982	290000	6.1035155e-09	116.15639	-0.020796986	-22.725578	0.7065686	0.016867263	0.1766	8.0	103.10174894332886
58	18.559256	377.64923	322.0602	-718.9442	1000.0	18.550062	15.960115	41.57315	-50.718506	295000	1.2969971e-08	1180.6053	-0.064430945	-916.2759	0.70512563	0.015010358	0.2772	47.0	105.084144115448
59	240.58623	28.164066	268.28842	191.15654	1000.0	22.407516	7.644369	39.328125	-35.45606	300000	1.9073486e-10	152.07268	-0.06948884	-40.67399	0.7029805	0.015195642	0.296	75.0	107.07589840888977
60	172.58902	104.58636	332.96158	15.814214	1000.0	19.74775	14.626024	39.398987	-66.47887	305000	-1.8501282e-08	237.65257	-0.029309409	-47.27678	0.6992476	0.01653967	0.2042	11.0	108.77090668678284
61	149.14835	219.38771	277.29367	-289.12598	1000.0	9.629989	26.779623	32.97583	-71.73002	310000	7.6293943e-10	171.90524	-0.0582256	-31.771423	0.6993953	0.0152413845	0.2708	38.0	110.62853336334229
62	280.6191	35.847954	310.04593	213.47128	1000.0	25.05757	5.300842	40.278603	-33.199627	315000	-9.536744e-10	158.77287	-0.016614104	-15.099869	0.69359815	0.01507926	0.175	6.0	112.34098649024963
63	242.06572	82.82967	320.67505	94.57264	1000.0	24.109068	17.615612	44.51884	-72.76643	320000	1.6498566e-08	164.27148	-0.025648823	-12.680298	0.6925198	0.016268928	0.1946	10.0	114.01542782783508
64	281.4201	92.93293	356.97302	98.53368	1000.0	25.791975	10.863534	42.494705	-74.94764	325000	1.01089475e-08	196.2638	-0.014561009	-19.393326	0.69037056	0.015763026	0.1746	6.0	115.69156169891357
65	180.7906	231.16832	317.78076	-276.75238	1000.0	13.990738	34.299026	44.74519	-89.36787	330000	1.4781952e-08	198.09962	-0.017755572	-59.61946	0.68864155	0.016471727	0.2242	6.0	117.46310019493103
66	328.30493	56.701767	394.89438	255.4384	1000.0	28.819332	4.124484	44.73078	6.798335	335000	-1.1825562e-08	105.73109	-0.049312767	-21.4803	0.687138	0.015172426	0.2448	31.0	119.26978373527527
67	184.36111	361.16443	405.74026	-534.808	1000.0	18.40985	29.718311	53.906273	-57.028305	340000	-1.2588501e-08	177.79778	-0.023860667	-59.494324	0.6818656	0.01510181	0.167	8.0	121.12079858779907
68	318.05383	46.60824	397.3315	272.90067	1000.0	35.01733	5.3746433	50.09979	7.018335	345000	-1.5258789e-09	188.10231	-0.020499317	-26.077454	0.68043804	0.016941218	0.1876	8.0	122.96405625343323
69	375.8886	46.29412	444.05566	312.57635	1000.0	32.95704	4.624382	50.57973	8.856912	350000	2.4795533e-08	162.57257	-0.026574692	-35.79261	0.6783508	0.015344782	0.2232	10.0	124.82139897346497
70	286.12833	123.52643	433.33157	57.933407	1000.0	31.442215	21.693615	62.401794	-55.21376	355000	-2.670288e-09	182.26605	-0.0107733505	-24.506516	0.67588294	0.015827833	0.1918	4.0	126.47659134864807
71	386.42715	51.004444	450.94717	306.97668	1000.0	34.60115	4.7926316	52.46256	4.441727	360000	7.247925e-09	127.09595	-0.07226311	-24.082962	0.67495143	0.014979642	0.3272	79.0	128.55011224746704
72	395.842	154.27621	561.56354	129.15071	1000.0	34.76855	20.677692	58.77899	-68.58031	365000	-8.487701e-09	234.561	-0.032520767	-50.617233	0.6689535	0.015724748	0.2168	12.0	130.27537989616394
73	408.12524	68.36787	483.37476	289.85434	1000.0	42.669353	8.769241	64.176735	-32.020103	370000	-1.8692017e-08	341.18594	-0.010963571	-39.962006	0.6681012	0.015941085	0.2014	4.0	131.89014506340027
74	419.9256	60.72779	497.2479	350.45825	1000.0	41.621983	6.8082056	59.010082	-3.780026	375000	1.0299683e-08	192.31026	-0.02843626	-27.347656	0.66735667	0.01530288	0.225	12.0	133.67630052566528
75	424.6247	107.22588	536.0733	225.20403	1000.0	42.433517	5.8371725	62.81118	12.559338	380000	-7.915497e-09	273.8611	-0.026984785	-53.092484	0.66413075	0.015711881	0.182	11.0	135.48714113235474
76	421.5656	31.961952	476.85635	383.24557	1000.0	43.49448	7.8691425	60.02299	3.9920752	385000	3.0517577e-09	212.24945	-0.04220955	-26.476242	0.66157055	0.015637074	0.259	20.0	137.4917151927948
77	462.73193	43.121487	525.3479	399.0579	1000.0	43.94534	6.222478	61.448982	2.5637634	390000	2.4986267e-08	175.19276	-0.013166969	-20.038025	0.658922	0.01535425	0.1898	4.0	139.31935167312622
78	340.9629	269.9899	510.7493	-197.23608	1000.0	36.69465	29.256699	67.79988	-73.65524	395000	7.534027e-09	335.5854	-0.011517629	-118.53143	0.6584531	0.016385442	0.2332	4.0	141.0306212902069
79	335.90033	388.5507	552.94763	-440.13498	1000.0	27.042048	47.14974	69.097	-87.0047	400000	9.346008e-09	259.5155	-0.020682657	-66.16466	0.65798527	0.015971458	0.2116	8.0	142.81768202781677
80	426.10577	75.12789	521.4545	328.60608	1000.0	45.908627	29.677565	73.60575	-162.65482	405000	-1.411438e-08	281.90396	-0.019240782	-70.54216	0.656485	0.016057454	0.1988	8.0	144.58757972717285
81	438.139	78.01298	570.4419	334.39368	1000.0	41.222507	18.266779	63.659573	-60.7889	410000	-8.010864e-09	211.50435	-0.022737827	-29.885239	0.6540167	0.015042066	0.1986	9.0	146.6322603225708
82	485.41254	106.33167	604.1617	284.93726	1000.0	43.481712	15.268403	66.17077	-93.42757	415000	2.0980835e-09	248.7052	-0.013522891	-29.484207	0.65118843	0.01656951	0.189	5.0	148.44694113731384
83	258.076	525.18726	609.3001	-783.20105	1000.0	38.86626	22.452242	69.06863	-31.635252	420000	-4.9591065e-09	1688.99	-0.068206854	-1198.6431	0.65005857	0.007325543	0.3144	79.0	150.73531675338745
84	400.84128	221.6277	603.4307	-26.334833	1000.0	37.681717	31.959604	70.224945	-126.872574	425000	-2.269745e-08	646.6671	-0.071569584	-72.30682	0.6469522	0.010851643	0.3386	79.0	152.9557077884674
85	382.39096	304.06946	620.7261	-214.18608	1000.0	36.263092	34.9111	74.25442	-94.31339	430000	3.9100647e-09	324.00604	-0.024443308	-47.012604	0.6403206	0.015557262	0.1582	9.0	154.76426005363464
86	500.45746	113.93151	594.1706	276.59793	1000.0	43.630367	27.275478	74.72011	-83.91653	435000	8.010864e-09	221.79193	-0.025719212	-36.04657	0.63927865	0.015807351	0.199	11.0	156.5300850868225
87	604.62695	73.7405	738.64813	528.0784	1000.0	54.79623	5.166264	77.686455	25.199741	440000	-8.9645384e-09	176.32387	-0.011411309	-52.093994	0.63629705	0.01706725	0.184	4.0	158.3389971256256
88	446.80215	364.65906	697.18494	-274.62305	1000.0	43.82936	44.10368	84.83092	-85.102196	445000	-3.0136107e-08	281.3101	-0.010722559	-47.06157	0.63505274	0.015124663	0.1876	4.0	160.07794189453125
89	341.59766	495.6264	708.9773	-639.613	1000.0	21.847519	85.81555	85.246864	-185.40016	450000	9.727478e-09	1223.5707	-0.0096980715	-851.86	0.63372034	0.016993081	0.2158	3.0	161.79975605010986
90	29.882544	735.6221	688.45013	-1056.514	1000.0	19.004091	50.911602	85.19693	-80.11638	455000	-3.3187867e-08	1219.0302	-0.049967557	-739.81177	0.6328125	0.015355045	0.2684	27.0	163.58696675300598
91	371.3268	453.5036	695.82416	-527.6153	1000.0	33.543385	52.774742	86.82551	-114.13122	460000	3.8146972e-10	562.8748	-0.022177095	-69.50162	0.62902194	0.015425362	0.1396	8.0	165.3040964603424
92	311.50235	382.90833	594.3973	-436.4068	1000.0	28.565441	58.137993	79.239	-131.20844	465000	1.2588501e-08	676.53284	-0.023084791	-84.54407	0.6278226	0.016277032	0.2346	8.0	167.04618525505066
93	426.61206	520.39844	713.70294	-613.31366	1000.0	29.506706	54.792072	77.10804	-122.2383	470000	4.9591065e-09	603.9366	-0.01352832	-159.2714	0.62629026	0.015016381	0.1768	5.0	168.7354564666748
94	563.6483	57.59017	645.21796	473.22098	1000.0	60.57338	10.194045	86.25125	-36.76077	475000	1.6784668e-08	218.73985	-0.025938151	-52.464554	0.625466	0.015903482	0.1958	10.0	170.51347851753235
95	652.34973	76.952675	767.0624	551.5934	1000.0	57.783024	6.4007463	80.86386	14.466129	480000	2.436638e-08	301.62576	-0.023696875	-59.500015	0.62318283	0.015048538	0.1872	9.0	172.36158561706543
96	-168.06638	461.58774	707.1537	-498.51984	1000.0	-12.859065	61.974854	91.544685	-99.68823	485000	2.7942658e-08	838.4022	-0.01813507	-311.523	0.6205851	0.016640155	0.1752	6.0	174.1115427017212
97	616.3784	105.14266	718.36584	472.74637	1000.0	47.310825	11.132575	73.18745	-13.409516	490000	1.2588501e-08	500.48145	-0.068027064	-266.69064	0.618818	0.015010722	0.3052	61.0	176.06223607063293
98	219.82527	503.95007	664.9359	-427.7233	1000.0	21.699545	60.511665	90.698235	-105.107	495000	-3.9100647e-09	489.6919	-0.018443309	-59.78784	0.61013913	0.015126286	0.1902	6.0	177.728040933609
99	495.16324	294.4328	773.4099	-70.011375	1000.0	45.588966	35.271713	77.315926	-70.88373	500000	-1.8501282e-08	364.9178	-0.011429987	-41.6445	0.60974634	0.015939245	0.232	4.0	179.37023186683655
100	638.3805	79.085464	703.7029	498.50867	1000.0	60.187244	6.6089625	82.59728	14.128076	505000	-1.0871887e-08	243.27812	-0.064771734	-38.545853	0.609259	0.015174098	0.3056	51.0	181.30353021621704
101	500.54077	336.91794	734.4415	-168.75928	1000.0	49.382107	41.20496	87.665245	-77.23704	510000	4.577637e-09	325.99225	-0.06512685	-42.986786	0.6035738	0.015302042	0.3086	52.0	183.24563908576965
102	721.8677	87.80422	823.84436	577.46576	1000.0	64.61165	10.016565	86.31849	-74.15007	515000	1.0490417e-09	315.2123	-0.033830043	-52.529205	0.5962552	0.016262235	0.2176	13.0	184.999938249588
103	649.7648	47.504925	691.4135	584.16754	1000.0	69.10319	8.07565	89.39185	-23.187408	520000	-7.724762e-09	198.39005	-0.020078212	-30.197052	0.59435797	0.016391901	0.1666	7.0	186.67029213905334
104	641.29987	36.805214	708.89685	608.66455	1000.0	64.41555	16.417604	89.3945	-101.4838	525000	7.4386595e-09	479.72876	-0.015741944	-40.91855	0.592568	0.015068147	0.1754	7.0	188.43637013435364
105	751.94025	98.15261	859.4185	615.4327	1000.0	66.5034	8.371833	90.136986	-4.6816053	530000	2.3460387e-08	293.75262	-0.020619724	-78.92619	0.5909751	0.016428059	0.2414	8.0	190.11984658241272
106	565.77783	317.14767	929.3733	-8.019748	1000.0	54.409824	47.040997	94.7322	-76.73278	535000	-1.8692017e-08	476.56964	-0.023195062	-60.986877	0.5899187	0.017024787	0.2296	8.0	191.88587355613708
107	292.6017	348.83612	768.50635	-113.29099	1000.0	26.548134	63.66254	95.77988	-80.07086	540000	1.0204316e-08	423.6898	-0.0059614903	-83.65549	0.58901095	0.01776346	0.2128	2.0	193.75564122200012
108	407.1642	475.0849	842.47644	-184.77916	1000.0	31.685675	58.710606	84.1063	-80.65577	545000	1.9073486e-10	425.17816	-0.0012332539	-63.825592	0.58867496	0.015095338	0.2354	2.0	195.6369161605835
109	761.78577	75.03159	848.1474	653.87946	1000.0	72.36987	7.1546965	95.138664	8.92312	550000	1.8119811e-08	335.7361	-0.02473342	-52.87973	0.5883271	0.016605001	0.2042	9.0	197.47969579696655
110	559.8704	366.02448	834.0198	-158.60579	1000.0	55.816414	49.350746	107.460625	-85.7368	555000	1.1444092e-09	297.11093	-0.01800572	-38.926636	0.58582896	0.015106044	0.1744	7.0	199.44817686080933
111	782.7272	56.440605	858.3548	684.0744	1000.0	73.21652	7.6238604	101.60372	1.2529042	560000	-1.7547608e-08	186.46768	-0.032585338	-47.48694	0.58391994	0.015060846	0.247	13.0	201.61968398094177
112	804.8974	51.754738	882.43915	732.6621	1000.0	78.496315	6.3568354	97.16019	37.49089	565000	-2.2506715e-08	199.71973	-0.049166743	-26.021194	0.57964504	0.015003293	0.2566	25.0	203.70571947097778
113	544.35236	566.18475	926.4392	-576.5963	1000.0	54.729733	55.050842	109.460396	-76.12901	570000	7.6770785e-09	408.84894	-0.027782377	-62.280792	0.57174253	0.015034619	0.2214	11.0	205.69862008094788
114	776.1959	93.68636	932.06744	664.1492	1000.0	81.30637	16.07429	113.542786	-76.790665	575000	-1.039505e-08	421.7471	-0.028022248	-59.460754	0.5699455	0.0154147735	0.2082	12.0	207.6012363433838
115	486.86353	371.5101	824.2202	-99.55797	1000.0	45.354706	65.78921	106.592026	-162.09566	580000	-1.1157989e-08	620.8342	-0.026368672	-80.32031	0.5679843	0.01737727	0.2128	10.0	209.38259744644165
116	886.7057	47.169586	958.2521	835.7755	1000.0	74.59794	10.096556	103.08067	-15.299812	585000	0.0	472.86115	-0.03518168	-229.6893	0.56615484	0.015599002	0.2582	16.0	211.0581464767456
117	836.9752	77.56156	987.4167	779.13306	1000.0	87.60789	9.437125	113.21705	-16.161808	590000	2.8514862e-08	371.29178	-0.0130008375	-42.657043	0.56243354	0.015631897	0.1624	4.0	212.81648182868958
118	449.13876	750.9562	909.5914	-1044.1235	1000.0	56.506523	58.9171	107.06476	-94.71898	595000	-2.746582e-08	1113.3064	-0.06593279	-470.27405	0.5614976	0.008956403	0.3348	79.0	214.91695833206177
119	901.0334	80.15265	1045.1752	827.6254	1000.0	81.43613	10.614059	114.63949	7.967724	600000	-2.6226044e-09	344.92245	-0.061713137	-144.17712	0.55606174	0.015139787	0.2828	42.0	217.01935362815857
120	710.4374	386.81732	952.3949	-59.18809	1000.0	74.71764	54.085888	116.94209	-137.22679	605000	9.346008e-09	771.8732	-0.013299387	-116.30603	0.54657096	0.016183231	0.2228	4.0	218.85568857192993
121	825.145	157.19113	966.7328	523.02246	1000.0	76.86767	42.038055	114.73439	-134.47539	610000	-1.1444092e-08	742.7816	-0.017263254	-65.78845	0.5459684	0.015238437	0.2184	7.0	220.63071155548096
122	927.45166	83.989296	1090.9316	853.9529	1000.0	88.66511	9.874884	118.71661	14.6971855	615000	-1.8119812e-09	286.50714	-0.007504552	-49.764145	0.5447177	0.018457955	0.1652	3.0	222.51189994812012
123	863.71387	42.955383	913.7492	810.56445	1000.0	90.69959	7.787121	120.46435	31.222843	620000	-2.2077561e-08	225.65207	-0.01902367	-20.382614	0.5442151	0.019496515	0.187	7.0	224.25457644462585
124	719.23145	348.4578	1009.388	82.93464	1000.0	71.35777	50.08242	118.71718	-133.17651	625000	5.531311e-09	889.4878	-0.026040941	-105.37079	0.5427563	0.016016625	0.2326	13.0	226.0871500968933
125	532.3192	405.4742	947.15985	-166.81384	1000.0	49.965755	66.55531	110.58006	-98.94494	630000	4.1007997e-08	828.8602	-0.011180765	-140.1571	0.5406123	0.016606921	0.1866	4.0	227.77180075645447
126	995.6429	50.54219	1087.4382	942.8428	1000.0	79.545616	26.807644	126.39265	-128.39792	635000	8.392334e-09	744.1897	-0.016802676	-284.25955	0.5400157	0.016551297	0.1946	7.0	229.58097386360168
127	697.8158	529.5241	1052.8911	-349.76187	1000.0	72.26312	55.227715	119.8914	-77.27225	640000	9.536744e-10	467.9638	-0.019725457	-66.506714	0.53848404	0.015415813	0.1936	7.0	231.29822301864624
128	626.8476	593.45197	1005.5297	-555.4651	1000.0	67.3572	68.67315	117.7356	-118.29354	645000	-1.6593933e-08	777.5223	-0.017062116	-118.7287	0.53619546	0.016152663	0.21	7.0	233.11293959617615
129	674.96594	277.266	935.05005	333.07623	1000.0	65.41294	57.155865	118.85878	-98.92774	650000	-6.6757204e-09	632.49084	-0.019768732	-91.52606	0.5339995	0.0154479295	0.2486	8.0	234.8536877632141
130	406.81226	685.1038	983.1531	-780.8127	1000.0	39.125233	83.584114	109.96206	-133.69511	655000	-1.2016296e-08	933.6011	-0.0078589665	-120.75397	0.53209233	0.015804732	0.157	3.0	236.59450817108154
131	1009.0584	60.2547	1078.3457	903.8609	1000.0	82.33969	22.951946	110.36299	-82.871475	660000	-5.3215025e-08	585.522	-0.028502634	-297.66174	0.53156704	0.016456155	0.2148	12.0	238.3032364845276
132	932.33154	94.18412	1036.2684	811.3263	1000.0	100.27705	7.0851746	124.18688	31.194078	665000	-2.4795533e-08	271.3689	-0.015962292	-42.812546	0.52969277	0.015285373	0.1902	6.0	240.03841018676758
133	691.8085	502.0053	1013.0499	-307.07327	1000.0	69.835754	58.24	117.28626	-84.80371	670000	2.8038025e-08	275.1935	-0.018838663	-39.52841	0.52851903	0.015512567	0.1888	8.0	241.8225440979004
134	789.39954	291.2729	1091.6628	345.7636	1000.0	70.04361	56.091988	112.04967	-108.769135	675000	-5.531311e-09	507.94696	-0.017664498	-52.325867	0.5269478	0.015681995	0.1898	6.0	243.54373860359192
135	933.54834	86.3206	1036.0295	816.92786	1000.0	96.43389	9.833079	126.304405	-39.33058	680000	9.918213e-09	334.6566	-0.014226182	-51.562164	0.52596587	0.018018551	0.2032	6.0	245.42886996269226
136	515.90814	645.7708	1056.5225	-694.7105	1000.0	50.87352	80.18073	119.61185	-115.44288	685000	-2.4318695e-08	1475.3591	-0.007925003	-246.12708	0.52486724	0.0164295	0.2008	3.0	247.0716109275818
137	359.79984	536.95557	934.76416	-497.3414	1000.0	27.489815	82.33122	122.55975	-132.5396	690000	-4.005432e-09	958.0816	-0.015025998	-100.69592	0.5240966	0.0154003985	0.1886	7.0	248.7638053894043
138	780.0006	579.8026	1105.7327	-378.67294	1000.0	59.83185	54.780197	110.950096	-83.71181	695000	-4.15802e-08	689.1713	-0.006309326	-331.35693	0.52241063	0.016527966	0.177	3.0	250.5579216480255
139	642.5493	645.5159	1146.4686	-606.73486	1000.0	62.14186	83.68987	129.23993	-155.0791	700000	-1.8310548e-08	920.6646	-0.012089643	-114.90662	0.52176577	0.015415799	0.2056	5.0	252.30294513702393
140	883.1125	324.28873	1086.5762	240.12329	1000.0	81.981476	48.413334	125.88929	-82.8185	705000	7.6293943e-10	620.7131	-0.005724739	-71.84412	0.5208983	0.019070001	0.248	3.0	253.97104501724243
141	646.23126	763.46765	1103.8206	-874.07947	1000.0	53.63064	94.31752	123.85169	-155.32356	710000	4.7683715e-09	647.0991	-0.019678988	-282.66617	0.5203696	0.01699109	0.2112	8.0	255.77065992355347
142	818.72784	418.94556	1179.9795	2.886568	1000.0	84.032394	52.317165	144.04054	-70.04743	715000	3.1089783e-08	497.0707	-0.028731858	-58.04782	0.5188332	0.016203139	0.2486	13.0	257.4886984825134
143	759.4261	546.00653	1114.9921	-325.59647	1000.0	74.44385	62.837723	132.82816	-86.67812	720000	-1.4781952e-08	411.42374	-0.007658308	-40.250397	0.51652014	0.016434329	0.1886	3.0	259.15728068351746
144	988.42883	230.0181	1300.1388	587.66174	1000.0	92.17123	41.815884	132.23761	-88.59984	725000	8.773804e-09	506.83765	-0.013611956	-52.60016	0.5160961	0.016167797	0.2042	5.0	260.85417127609253
145	1007.87177	90.87896	1137.1006	895.84595	1000.0	104.31925	21.647121	135.06903	-79.20627	730000	-9.226799e-09	363.407	-0.0249789	-50.3143	0.51527405	0.015489249	0.2478	11.0	262.5977954864502
146	999.3791	50.38074	1068.1742	939.07477	1000.0	101.19688	9.87362	127.82024	5.4576697	735000	-5.340576e-09	296.64755	-0.041559745	-22.74939	0.51421946	0.015159268	0.2406	22.0	264.38373279571533
147	983.1839	112.48947	1166.9279	850.0858	1000.0	93.570885	41.654976	126.94692	-102.40708	740000	-7.05719e-09	864.6366	-0.008803011	-82.6156	0.5116769	0.018054346	0.2188	3.0	266.07162737846375
148	960.9012	141.04051	1102.2113	702.04144	1000.0	93.49068	37.635277	130.02377	-81.66239	745000	-4.196167e-09	465.3336	-0.0062227454	-71.786194	0.51114476	0.01582295	0.1852	3.0	267.75174260139465
149	1069.302	100.042435	1178.5208	941.3968	1000.0	100.86226	11.468587	128.63498	-33.028572	750000	1.2397766e-08	400.04086	-0.019225068	-119.23947	0.5105582	0.017343184	0.2288	8.0	269.56480860710144
150	816.6592	640.9795	1262.9119	-457.70193	1000.0	78.6856	65.34946	141.85269	-70.898865	755000	2.2888185e-09	378.41904	-0.012626532	-35.497925	0.5084429	0.015782155	0.1928	5.0	271.2803168296814
151	844.6862	474.88904	1227.2423	-90.34687	1000.0	88.075485	59.068165	142.41202	-75.48633	760000	2.0217895e-08	488.1335	-0.020077342	-72.225006	0.5069276	0.015308014	0.213	8.0	273.0019826889038
152	912.23456	182.93666	1010.25433	546.72205	1000.0	88.65372	54.378963	147.7318	-145.08463	765000	-4.0245055e-08	813.0906	-0.008111145	-114.3421	0.50496024	0.015586212	0.1832	3.0	274.67973613739014
153	916.0952	409.39993	1327.3916	134.31543	1000.0	83.70675	49.936703	122.81697	-85.92917	770000	1.8692017e-08	716.786	-0.006747826	-117.98181	0.50434947	0.017446859	0.255	3.0	276.3636918067932
154	893.9616	407.05853	1213.6998	127.4009	1000.0	92.0599	53.289745	142.09273	-108.14777	775000	-1.3256073e-08	967.043	-0.008629549	-148.1903	0.5037087	0.015545496	0.18	4.0	278.056946516037
155	686.67346	513.435	1170.3732	-267.6652	1000.0	71.34211	62.41014	136.70343	-71.32969	780000	1.2588501e-08	870.696	-0.016712358	-145.95563	0.50278986	0.015508848	0.2004	6.0	279.76045751571655
156	953.47833	452.19608	1276.0641	63.58533	1000.0	80.028015	57.392002	132.7431	-124.20658	785000	-5.722046e-09	926.1916	-0.016996114	-275.15796	0.5015367	0.015427142	0.2404	8.0	281.4691801071167
157	880.07	481.7934	1241.45	-72.88872	1000.0	87.99608	58.089954	134.53615	-70.34472	790000	1.2588501e-08	414.53952	-0.06330192	-42.641083	0.5002648	0.015366119	0.3394	70.0	283.4089734554291
158	905.9017	263.26053	1132.7589	397.44296	1000.0	91.73566	52.50882	149.17036	-80.92271	795000	1.7261506e-08	590.1627	-0.029315969	-78.88956	0.49447262	0.015615012	0.215	13.0	285.1339817047119
159	1156.9093	85.0829	1265.0653	1005.0862	1000.0	105.1825	9.512454	137.82573	18.200348	800000	8.5830687e-10	421.0127	-0.035257753	-176.95007	0.49337208	0.015383209	0.221	17.0	286.87817907333374
160	783.3416	410.17307	1185.7769	172.56313	1000.0	83.65944	73.315926	145.04095	-125.760124	805000	1.4686584e-08	1005.9175	-0.026931275	-203.4992	0.49026653	0.01617208	0.2342	13.0	288.6465106010437
161	1077.5105	253.3813	1343.4673	607.4208	1000.0	98.697914	35.09767	133.03719	-61.45486	810000	-1.2588501e-08	662.5433	-0.018241482	-99.872925	0.4889213	0.017416805	0.1964	6.0	290.5082325935364
162	877.9678	426.56158	1203.2758	41.298733	1000.0	87.825455	58.31964	147.81544	-127.53297	815000	-2.4080277e-08	906.0558	-0.021650614	-147.0711	0.4880264	0.01698187	0.245	10.0	292.2193970680237
163	937.15955	349.74597	1244.707	256.80914	1000.0	87.90635	52.809856	128.24197	-94.17983	820000	2.0980835e-09	378.7082	-0.010824629	-67.07599	0.48679057	0.016558032	0.1676	4.0	293.89712929725647
164	969.0086	204.8378	1211.6296	622.64496	1000.0	98.41292	41.313267	133.80293	-68.601326	825000	1.4877319e-08	635.97784	-0.008092736	-66.01251	0.4865208	0.016552802	0.1734	3.0	295.5636179447174
165	818.68835	550.61017	1171.9154	-277.1785	1000.0	79.71417	63.817554	142.4941	-74.38865	830000	-2.117157e-08	453.2158	-0.01737101	-44.37256	0.4860021	0.016849544	0.196	8.0	297.27796840667725
166	953.3747	417.57697	1252.3091	126.1212	1000.0	89.13964	54.462852	139.85832	-68.87483	835000	-2.4271012e-08	368.13013	-0.023820847	-43.56723	0.4844233	0.015606146	0.2102	11.0	298.97838068008423
167	655.64044	747.8519	1189.0253	-812.71484	1000.0	67.47133	85.44367	141.73192	-118.01531	840000	-2.2602082e-08	1311.0032	-0.01095759	-239.09924	0.48318845	0.015183888	0.1988	4.0	300.69680619239807
168	854.943	528.64777	1167.739	-197.04575	1000.0	80.8056	57.721554	135.341	-65.54494	845000	-6.6757204e-09	496.06116	-0.020510433	-75.397156	0.48272246	0.015944522	0.1898	8.0	302.39886689186096
169	549.3551	832.0509	1095.1244	-1072.137	1000.0	52.65823	91.55006	132.40474	-130.61705	850000	-2.2888185e-09	464.93106	-0.055844624	-61.862732	0.4816865	0.010320404	0.304	79.0	304.3847393989563
170	1181.4834	127.18224	1351.6829	1046.6892	1000.0	107.331276	9.504713	130.21712	4.12049	855000	3.089905e-08	480.0954	-0.02023253	-195.1788	0.4765832	0.018322043	0.201	7.0	306.1028552055359
171	1184.5764	61.04661	1257.2103	1107.1683	1000.0	118.7544	9.0458975	150.37769	41.20856	860000	1.1253357e-08	244.21837	-0.018234307	-29.013214	0.47578594	0.016075037	0.1826	7.0	307.81013321876526
172	1003.95544	214.05083	1213.324	654.94196	1000.0	104.120834	48.7984	150.44939	-60.429394	865000	4.7683715e-09	724.86017	-0.020799989	-119.460144	0.47421753	0.015568102	0.2396	10.0	309.5209059715271
173	1182.5071	107.9471	1277.526	972.9743	1000.0	112.654564	9.278764	138.22441	33.936916	870000	3.242493e-08	420.78024	-0.023801561	-101.0686	0.47235873	0.01503148	0.2024	9.0	311.2925672531128
174	875.3578	394.9454	1251.8058	115.168396	1000.0	86.85987	67.45455	149.88171	-65.32576	875000	1.6498566e-08	893.9534	-0.0074669016	-122.63092	0.47084287	0.016511608	0.2076	3.0	312.9492313861847
175	1047.2247	352.30756	1289.8726	354.70392	1000.0	97.016014	50.263638	141.26425	-59.434685	880000	-1.9550324e-09	461.946	-0.006043498	-97.40192	0.4703402	0.016361834	0.1818	3.0	314.7195653915405
176	661.34973	701.9597	1280.9707	-209.72769	1000.0	65.784096	79.63937	148.31682	-57.167786	885000	-5.2452087e-09	561.3182	-0.012621706	-72.39557	0.46975136	0.016768342	0.1738	4.0	316.3937554359436
177	1081.259	194.66783	1289.7631	715.7223	1000.0	110.878174	37.15748	145.93991	-85.2186	890000	-2.0980835e-09	542.0126	-0.0042891493	-66.759766	0.46878162	0.017586576	0.243	2.0	318.0163996219635
178	756.70337	854.14185	1254.6724	-948.1857	1000.0	75.90447	85.13737	146.93456	-129.93765	895000	-1.7738342e-08	809.3497	-0.02897738	-138.22589	0.46828374	0.015856417	0.2258	15.0	319.78582978248596
179	1120.1676	90.59753	1268.0168	992.32263	1000.0	107.433815	37.767097	147.70166	-60.188046	900000	2.269745e-08	623.8381	-0.008799425	-79.42816	0.46578383	0.015662212	0.2042	3.0	321.4901554584503
180	1091.0398	413.4818	1424.2352	282.20035	1000.0	97.29576	56.25181	145.54855	-66.57061	905000	-2.4795533e-08	590.6653	-0.02350029	-121.227295	0.4653645	0.015113632	0.2076	9.0	323.2154538631439
181	1278.8694	79.1119	1389.5239	1193.2424	1000.0	125.58602	11.504588	167.65201	-0.87427074	910000	-1.2302399e-08	399.0588	-0.02697264	-81.98859	0.46431622	0.015070786	0.2506	12.0	324.9516935348511
182	247.32259	512.46497	1239.5737	-183.74673	1000.0	36.570805	92.177025	156.54999	-111.73837	915000	5.1498414e-09	1734.398	-0.032449447	-790.8997	0.46164623	0.015473012	0.2698	17.0	326.713481426239
183	957.0631	424.83002	1427.7203	269.5311	1000.0	71.46348	59.104362	132.62233	-77.53112	920000	-3.185272e-08	1206.6552	-0.050775927	-409.44983	0.46006456	0.015090526	0.2828	34.0	328.5274751186371
184	1230.3411	102.26279	1348.067	1059.646	1000.0	114.542816	24.906092	153.74513	-62.49546	925000	2.632141e-08	662.8642	-0.023307739	-111.10602	0.45818374	0.017727872	0.1998	9.0	330.19378209114075
185	1328.6552	69.94309	1408.6388	1203.3407	1000.0	125.639175	9.572502	159.38272	65.68892	930000	-1.2207031e-08	346.05698	-0.016749943	-101.88698	0.4570537	0.015062834	0.1906	7.0	331.8839957714081
186	1176.5479	270.94345	1469.6866	678.2577	1000.0	123.70853	42.376347	158.30305	-66.92179	935000	2.2411346e-08	696.13226	-0.016813666	-90.72046	0.45565844	0.015548424	0.1812	7.0	333.52430868148804
187	1007.9676	444.62378	1367.8767	134.1273	1000.0	103.0877	61.333267	158.58977	-73.65514	940000	5.531311e-09	482.923	-0.014831821	-54.697266	0.4544526	0.016233474	0.1768	7.0	335.3104238510132
188	744.212	666.0973	1382.0939	-127.29041	1000.0	70.66569	80.278984	153.66002	-66.509674	945000	4.7683715e-09	747.1312	-0.029000174	-50.956543	0.45326844	0.015217896	0.248	15.0	337.01123213768005
189	731.52716	702.2892	1339.977	-533.4623	1000.0	72.676735	88.17806	153.90535	-124.81606	950000	-1.1205673e-08	1132.0778	-0.009305764	-124.49884	0.45107168	0.015936665	0.2024	4.0	338.70644450187683
190	448.46466	966.5089	1297.5112	-1042.3687	1000.0	39.473236	101.406815	155.67064	-131.58252	955000	-1.0967255e-09	610.7463	-0.017007247	-80.24835	0.450647	0.016657313	0.206	6.0	340.39222598075867
191	1250.1592	66.11415	1336.0802	1144.1495	1000.0	119.58637	12.135685	154.4502	-6.8962703	960000	8.678437e-09	373.8028	-0.021426968	-79.36041	0.45002356	0.015670253	0.2254	9.0	342.086279630661
192	688.3183	324.06454	1106.7869	302.0345	1000.0	74.21567	89.788635	145.8349	-144.32753	965000	-2.2506715e-08	1547.0339	-0.01628218	-523.52374	0.44842917	0.01542092	0.2138	6.0	343.78589367866516
193	1218.9608	81.76706	1375.3826	1151.5791	1000.0	98.9223	19.958872	125.112816	-52.203346	970000	5.912781e-09	875.1861	-0.018969169	-465.80328	0.44718868	0.015914107	0.2362	9.0	345.49319195747375
194	1244.4507	66.54275	1308.1718	1134.5858	1000.0	121.86562	8.1418295	142.7198	36.171356	975000	3.4713747e-08	257.71036	-0.03892367	-42.61206	0.4451094	0.015068924	0.2386	19.0	347.2333047389984
195	1247.4999	154.94466	1409.8076	968.4348	1000.0	119.13825	38.321903	150.85461	-57.39582	980000	4.0626524e-08	595.9671	-0.05513277	-50.79535	0.44166836	0.015094728	0.306	68.0	349.2395796775818
196	419.16367	518.4223	1287.2833	-343.2176	1000.0	42.287807	86.96189	156.75047	-57.202286	985000	-2.7370453e-08	1002.6698	-0.022640483	-283.0786	0.43278682	0.016070498	0.1796	9.0	350.9264786243439
197	1137.6134	446.74164	1405.1188	248.28302	1000.0	94.84269	54.64862	141.23842	-60.982697	990000	1.8119811e-08	828.34875	-0.028759696	-326.88306	0.43197167	0.017054241	0.2514	14.0	352.6702332496643
198	813.6177	652.7723	1427.549	-111.00344	1000.0	84.90189	87.37879	156.58965	-126.017426	995000	4.196167e-09	1340.505	-0.019600421	-251.80396	0.42955405	0.016533608	0.2048	8.0	354.3768627643585
199	804.6478	664.2036	1397.9613	-194.46667	1000.0	73.75078	77.86268	158.289	-63.89439	1000000	-2.9087066e-09	570.8004	-0.020158404	-97.58252	0.4279335	0.015435052	0.2008	8.0	356.1000783443451
200	1273.5094	81.03761	1414.6271	1169.071	1000.0	126.4657	13.044802	157.95941	-17.442528	1005000	-1.3113022e-08	344.3139	-0.024923537	-88.32181	0.42691332	0.017139038	0.221	11.0	357.816201210022
201	910.5018	465.02286	1327.7231	300.73615	1000.0	94.42974	70.52964	155.63419	-53.62833	1010000	1.3542175e-08	720.1949	-0.005432602	-97.94946	0.42461523	0.016628472	0.1996	3.0	359.6922903060913
202	1163.3883	271.49823	1362.511	635.4056	1000.0	111.5286	47.07604	152.04503	-64.21197	1015000	-2.861023e-09	496.0613	-0.014028464	-42.079315	0.42392173	0.015492157	0.162	6.0	361.41306042671204
203	1000.967	638.01904	1518.9175	-223.23781	1000.0	87.97693	91.7894	157.55893	-133.09053	1020000	1.4209747e-08	811.4548	-0.006760044	-102.63269	0.4227217	0.016294288	0.2218	3.0	363.1833896636963
204	845.0249	679.83655	1417.4138	-172.6151	1000.0	81.341576	82.22236	159.1247	-61.833958	1025000	1.7404557e-09	563.3139	-0.04154981	-52.10849	0.4222031	0.015071532	0.2668	32.0	365.0313904285431
205	1098.1418	418.94772	1475.1343	325.3488	1000.0	104.97519	70.64008	159.36661	-102.7184	1030000	9.918213e-09	652.89746	-0.044287547	-65.17517	0.41956913	0.015552155	0.241	34.0	366.86996150016785
206	947.4186	564.4857	1539.7246	-57.453564	1000.0	90.77927	76.23193	155.34596	-64.137825	1035000	1.373291e-08	663.4009	-0.026259726	-51.938354	0.41626638	0.015055647	0.2074	12.0	368.5947299003601
207	821.5913	473.1836	1374.625	246.11942	1000.0	74.22323	81.62565	159.29517	-56.33776	1040000	1.6403199e-08	820.91724	-0.035005644	-68.58215	0.41523266	0.015122751	0.2354	22.0	370.3597528934479
208	571.2119	716.87756	1406.7878	-376.39102	1000.0	52.081585	88.40401	157.42722	-61.031982	1045000	3.0517577e-09	811.0533	-0.024854451	-82.64215	0.41423568	0.015692875	0.2306	10.0	372.042359828949
209	1103.1852	373.51443	1467.2993	611.21564	1000.0	96.68223	65.466064	153.97131	-64.45748	1050000	-1.1444092e-08	796.922	-0.055517312	-138.10468	0.41281605	0.015060643	0.308	70.0	374.0095717906952
210	1083.39	568.92755	1446.47	-51.414066	1000.0	105.71701	65.34017	163.75728	-56.076435	1055000	-5.912781e-09	502.02365	-0.021398958	-65.92511	0.40665537	0.016676579	0.1824	10.0	375.66302847862244
211	1017.21075	559.22986	1385.5317	-93.964714	1000.0	103.03917	70.19514	160.62424	-59.315887	1060000	1.2898445e-08	650.3184	-0.0126115605	-108.72888	0.40556172	0.017687958	0.1952	5.0	377.38793444633484
212	1113.4948	567.1829	1441.2849	-18.93035	1000.0	100.81406	63.981434	162.04654	-52.576015	1065000	1.1444092e-09	538.98816	-0.004790032	-137.47574	0.40511805	0.016137198	0.1558	2.0	379.1074569225311
213	614.0566	827.7555	1551.1803	-734.15735	1000.0	56.83686	108.56713	161.71335	-114.28742	1070000	-2.3627281e-08	936.6168	-0.021785047	-96.08301	0.40499505	0.015050656	0.2258	11.0	380.94093012809753
214	1058.8242	587.7976	1596.3516	-20.463728	1000.0	91.836624	75.31411	160.37015	-58.080936	1075000	-2.0694733e-08	786.71375	-0.02810864	-205.41565	0.40465418	0.01570985	0.2058	14.0	382.7177269458771
215	1277.2224	209.46039	1514.6433	908.8473	1000.0	130.93665	47.161377	172.20534	-53.816257	1080000	-4.1389466e-08	591.6771	-0.028386746	-109.47357	0.4035928	0.016513491	0.202	12.0	384.3994572162628
216	1114.1873	573.50476	1660.7635	14.134014	1000.0	107.21005	68.34182	167.27994	-51.438377	1085000	1.1253357e-08	824.02997	-0.021964433	-78.33978	0.40135616	0.015324286	0.19	10.0	386.13803720474243
217	1029.669	528.21924	1516.9952	34.581165	1000.0	99.35952	71.667336	175.59067	-47.760784	1090000	7.629395e-09	669.5674	-0.059224777	-100.036804	0.39969662	0.015258782	0.3148	72.0	388.18032670021057
218	1123.5156	605.93945	1519.222	-84.33948	1000.0	107.06138	66.315445	161.3304	-50.875614	1095000	3.2043456e-08	513.21497	-0.024695555	-55.561768	0.3940847	0.015114127	0.2126	11.0	389.9138057231903
219	1446.4832	58.16535	1535.0978	1372.3164	1000.0	137.81627	8.840585	164.54318	32.9013	1100000	2.3174286e-08	312.94852	-0.020823535	-108.034744	0.3921826	0.01835595	0.2218	8.0	391.6194384098053
220	1094.6307	563.3985	1491.1862	-10.558671	1000.0	109.65404	74.33711	181.48932	-50.171947	1105000	-3.051758e-08	1028.1686	-0.008916463	-184.34406	0.39060873	0.018279163	0.1924	3.0	393.30547070503235
221	1399.1205	116.3061	1508.6964	1179.5585	1000.0	132.08795	29.954409	158.8944	-92.758484	1110000	2.9373169e-08	476.74866	-0.0023151932	-59.536377	0.38995066	0.016938454	0.2068	2.0	394.98584818840027
222	1414.1936	73.274	1546.6934	1345.4932	1000.0	140.07443	11.955883	165.81839	-16.57433	1115000	2.670288e-09	312.9482	-0.0022296892	-42.078278	0.3895905	0.016435144	0.1858	2.0	396.651344537735
223	570.9188	780.10443	1681.1136	-318.33228	1000.0	65.1512	99.00575	167.56418	-145.82974	1120000	2.1457671e-09	1817.9424	-0.012178647	-501.81702	0.3892605	0.016440732	0.2256	5.0	398.3251428604126
224	887.66473	777.3145	1567.2786	-304.1286	1000.0	75.3474	97.29974	186.40868	-174.24242	1125000	-4.386902e-09	1379.0928	-0.021007005	-269.52002	0.38838854	0.017927423	0.2264	10.0	400.06269454956055
225	1140.7495	659.9802	1579.3384	-173.4514	1000.0	108.26578	69.679146	189.15096	-47.869217	1130000	-6.6757204e-09	520.39374	-0.030389855	-170.11407	0.38750964	0.015033397	0.2102	14.0	401.7764482498169
226	1471.1001	125.17663	1664.5945	1293.9612	1000.0	145.71245	8.506038	170.01425	71.85109	1135000	-2.4414062e-08	318.0262	-0.02435555	-49.36908	0.38525638	0.01680087	0.2064	10.0	403.4811267852783
227	1329.7539	255.72554	1524.1603	823.4899	1000.0	135.77153	48.27474	183.1961	-43.81147	1140000	6.1035155e-09	508.93686	-0.032915417	-55.784668	0.38353753	0.015184883	0.2526	19.0	405.24853324890137
228	1444.2094	96.65576	1569.1604	1306.6171	1000.0	144.65698	11.326959	171.305	-24.498657	1145000	2.5558471e-08	570.3562	-0.018329646	-36.947876	0.38057458	0.015784018	0.1724	8.0	407.05838108062744
229	1236.3572	392.8116	1532.2017	471.4471	1000.0	125.42125	67.63483	176.6451	-169.55215	1150000	-1.0967255e-08	1318.4169	-0.008528078	-198.09192	0.37927774	0.015310923	0.2196	4.0	408.78256702423096
230	952.33923	590.432	1423.2603	-139.57486	1000.0	91.92427	82.41964	178.05342	-76.119156	1155000	3.1661987e-08	965.1234	-0.020336526	-181.4892	0.37890816	0.017011635	0.2112	9.0	410.46255350112915
231	1476.1007	48.387722	1530.9684	1417.2534	1000.0	130.0924	16.873032	170.15535	-61.546604	1160000	-1.7929077e-08	682.1116	-0.031229468	-429.1748	0.37761003	0.016556107	0.2358	15.0	412.30751943588257
232	1300.9633	389.8367	1622.3728	541.08575	1000.0	131.3953	64.83493	182.02032	-149.65425	1165000	-2.2411346e-08	1157.0417	-0.007835596	-168.89862	0.37386748	0.018145116	0.2204	3.0	413.9767174720764
233	808.97815	686.6675	1600.565	-50.844566	1000.0	78.93015	85.68112	184.61797	-63.520676	1170000	-1.4305115e-09	945.6001	-0.015360293	-186.05627	0.37303334	0.015094502	0.1624	6.0	415.66557931900024
234	1321.1333	321.56915	1556.9022	687.5251	1000.0	121.214386	51.83957	168.25978	-45.525925	1175000	3.0136107e-08	528.8901	-0.016653324	-144.2268	0.37104324	0.015501071	0.2028	8.0	417.3631503582001
235	1200.6897	565.7217	1623.8796	86.74084	1000.0	119.15235	66.31719	175.46983	-46.046055	1180000	-4.2438506e-09	505.3743	-0.0158902	-42.447357	0.36854336	0.015063405	0.1702	7.0	419.04026460647583
236	1242.5016	532.0034	1638.1234	192.70448	1000.0	119.88812	65.430595	176.31621	-49.377514	1185000	-1.01089475e-08	569.6616	-0.0084591545	-59.744965	0.36701295	0.017875768	0.2206	3.0	420.71697902679443
237	1241.0652	431.54697	1550.5248	387.75272	1000.0	127.60265	61.534077	184.70255	-48.57716	1190000	-3.6525726e-08	872.1709	-0.022059483	-115.21228	0.36651057	0.01667366	0.2452	11.0	422.4149920940399
238	1133.0721	572.805	1592.0293	12.094993	1000.0	106.70408	72.449684	178.36298	-44.151268	1195000	-1.1825562e-08	657.6486	-0.026751457	-75.0177	0.3647388	0.015232992	0.2002	13.0	424.12063908576965
239	1382.063	168.59636	1601.1483	1085.0768	1000.0	136.70856	36.990242	173.26251	-45.16688	1200000	2.5558471e-08	506.11435	-0.019403806	-43.484314	0.36238673	0.017105576	0.1964	8.0	425.81449699401855
240	1537.1194	71.28939	1612.3384	1407.7245	1000.0	145.7239	11.801491	174.55728	-7.5304103	1205000	-1.5830993e-08	437.61865	-0.018920377	-148.3917	0.36083063	0.017313806	0.1822	8.0	427.508784532547
241	1046.3253	956.91595	1596.693	-863.03564	1000.0	111.19125	94.16514	182.64012	-88.667366	1210000	-1.6403199e-08	497.70486	-0.035491314	-125.80118	0.3599673	0.015467883	0.2374	23.0	429.3870499134064
242	1249.6919	630.5553	1630.4409	-8.139627	1000.0	122.1168	73.11859	184.03732	-50.51985	1215000	3.0517577e-09	554.4442	-0.022552878	-49.669373	0.36187288	0.015966918	0.2282	10.0	431.09658002853394
243	519.8058	930.0591	1720.2332	-584.7754	1000.0	46.243595	108.38478	183.50691	-103.59751	1220000	4.6300887e-08	933.9035	-0.0074357134	-111.56561	0.3612405	0.01694085	0.172	3.0	432.7989661693573
244	1199.8137	513.7724	1628.2137	196.32002	1000.0	121.545685	64.401024	182.04494	-42.169353	1225000	3.6239625e-09	533.3728	-0.029009381	-94.056366	0.36085874	0.015022751	0.2424	14.0	434.48533272743225
245	923.6364	554.6618	1538.7853	230.76237	1000.0	85.18284	85.93448	171.9791	-46.626625	1230000	2.7370453e-08	691.3113	-0.007650551	-97.24109	0.35821316	0.02184141	0.232	3.0	436.1977858543396
246	1194.4412	626.4081	1672.0873	-28.257338	1000.0	111.4704	67.79651	174.69571	-42.629852	1235000	6.437302e-09	651.91345	-0.0103662405	-127.370605	0.35767525	0.015166013	0.1762	5.0	437.8954803943634
247	1563.6565	71.9712	1670.0712	1448.5792	1000.0	150.39584	10.512404	183.81435	65.50775	1240000	4.386902e-09	370.2965	-0.019728472	-112.81491	0.35670534	0.015934069	0.203	7.0	439.57322001457214
248	1273.7184	357.9652	1503.4891	561.2298	1000.0	136.6398	57.58384	183.94586	-33.47941	1245000	1.8310548e-08	508.7863	-0.05371941	-117.87686	0.3557418	0.015075543	0.298	58.0	441.53885531425476
249	1191.0597	655.60345	1565.1813	-117.802666	1000.0	116.91283	68.24721	177.6123	-35.077354	1250000	-3.056526e-08	529.4711	-0.030123249	-68.70822	0.34984076	0.015644617	0.228	15.0	443.2719497680664
